{
    "acronym": {
        "variant": [
            {
                "name": "acronym_s",
                "type": "string",
                "indexed": true,
                "stocked": true,
                "multiplevalue": false,
                "currentName": "acronym_s"
            },
            {
                "name": "acronym_sci",
                "type": "stringCaseInsensitive",
                "indexed": true,
                "stocked": false,
                "multiplevalue": false,
                "currentName": "acronym_sci"
            },
            {
                "name": "acronym_t",
                "type": "text",
                "indexed": true,
                "stocked": false,
                "multiplevalue": false,
                "currentName": "acronym_t"
            }
        ],
        "dynamic": false,
        "description": "Acronyme"
    },
    "aliasDocid": {
        "variant": [
            {
                "name": "aliasDocid_i",
                "type": "int",
                "indexed": false,
                "stocked": false,
                "multiplevalue": true,
                "currentName": "aliasDocid_i"
            }
        ],
        "dynamic": false,
        "description": "Identifiants des projets fusionn\u00e9s",
        "label": "Projets fusionn\u00e9s"
    },
    "callId": {
        "variant": [
            {
                "name": "callId_s",
                "type": "string",
                "indexed": true,
                "stocked": true,
                "multiplevalue": false,
                "currentName": "callId_s"
            },
            {
                "name": "callId_sci",
                "type": "stringCaseInsensitive",
                "indexed": true,
                "stocked": false,
                "multiplevalue": false,
                "currentName": "callId_sci"
            },
            {
                "name": "callId_t",
                "type": "text",
                "indexed": true,
                "stocked": false,
                "multiplevalue": false,
                "currentName": "callId_t"
            }
        ],
        "dynamic": false,
        "description": "Num\u00e9ro du projet",
        "label": "Num\u00e9ro du projet"
    },
    "dateLastIndexed": {
        "variant": [
            {
                "name": "dateLastIndexed_tdate",
                "type": "tdate",
                "indexed": true,
                "stocked": true,
                "multiplevalue": false,
                "currentName": "dateLastIndexed_tdate"
            }
        ],
        "dynamic": false,
        "description": "Date de derni\u00e8re indexation",
        "label": "Derni\u00e8re indexation"
    },
    "docid": {
        "variant": [
            {
                "name": "docid",
                "type": "string",
                "indexed": true,
                "stocked": true,
                "multiplevalue": false,
                "currentName": "docid"
            }
        ],
        "dynamic": false,
        "description": "Identifiant unique du projet",
        "label": "Identifiant"
    },
    "endDate": {
        "variant": [
            {
                "name": "endDate_s",
                "type": "string",
                "indexed": true,
                "stocked": true,
                "multiplevalue": false,
                "currentName": "endDate_s"
            },
            {
                "name": "endDate_tdate",
                "type": "tdate",
                "indexed": true,
                "stocked": false,
                "multiplevalue": false,
                "currentName": "endDate_tdate"
            }
        ],
        "dynamic": false,
        "description": "Date de fin du projet",
        "label": "Fin du projet"
    },
    "financing": {
        "variant": [
            {
                "name": "financing_s",
                "type": "string",
                "indexed": true,
                "stocked": true,
                "multiplevalue": false,
                "currentName": "financing_s"
            },
            {
                "name": "financing_t",
                "type": "text",
                "indexed": true,
                "stocked": false,
                "multiplevalue": false,
                "currentName": "financing_t"
            }
        ],
        "dynamic": false,
        "description": "Financement du projet",
        "label": "Financement"
    },
    "label": {
        "variant": [
            {
                "name": "label_html",
                "type": "string",
                "indexed": false,
                "stocked": true,
                "multiplevalue": false,
                "currentName": "label_html"
            },
            {
                "name": "label_s",
                "type": "string",
                "indexed": true,
                "stocked": true,
                "multiplevalue": false,
                "currentName": "label_s"
            }
        ],
        "dynamic": false,
        "description": "Concat\u00e9nation de diff\u00e9rents champs non vides avec une mise en forme HTML",
        "label": "Sortie HTML"
    },
    "openaireId": {
        "variant": [
            {
                "name": "openaireId_s",
                "type": "string",
                "indexed": true,
                "stocked": true,
                "multiplevalue": false,
                "currentName": "openaireId_s"
            }
        ],
        "dynamic": false,
        "description": "europeanproject_openaireId_s"
    },
    "openaire": {
        "variant": [
            {
                "name": "openaire_bool",
                "type": "boolean",
                "indexed": true,
                "stocked": true,
                "multiplevalue": false,
                "currentName": "openaire_bool"
            }
        ],
        "dynamic": false,
        "description": "Projet OPENAIRE",
        "label": "OPENAIRE"
    },
    "reference": {
        "variant": [
            {
                "name": "reference_s",
                "type": "string",
                "indexed": true,
                "stocked": true,
                "multiplevalue": false,
                "currentName": "reference_s"
            },
            {
                "name": "reference_sci",
                "type": "stringCaseInsensitive",
                "indexed": true,
                "stocked": false,
                "multiplevalue": false,
                "currentName": "reference_sci"
            },
            {
                "name": "reference_t",
                "type": "text",
                "indexed": true,
                "stocked": false,
                "multiplevalue": false,
                "currentName": "reference_t"
            }
        ],
        "dynamic": false,
        "description": "R\u00e9f\u00e9rence du projet",
        "label": "R\u00e9f\u00e9rence"
    },
    "startDate": {
        "variant": [
            {
                "name": "startDate_s",
                "type": "string",
                "indexed": true,
                "stocked": true,
                "multiplevalue": false,
                "currentName": "startDate_s"
            },
            {
                "name": "startDate_tdate",
                "type": "tdate",
                "indexed": true,
                "stocked": false,
                "multiplevalue": false,
                "currentName": "startDate_tdate"
            }
        ],
        "dynamic": false,
        "description": "Date de d\u00e9but du projet",
        "label": "D\u00e9but du projet"
    },
    "text": {
        "variant": [
            {
                "name": "text",
                "type": "text",
                "indexed": true,
                "stocked": false,
                "multiplevalue": true,
                "currentName": "text"
            },
            {
                "name": "text_autocomplete",
                "type": "text_autocomplete",
                "indexed": true,
                "stocked": false,
                "multiplevalue": true,
                "currentName": "text_autocomplete"
            }
        ],
        "dynamic": false,
        "description": "Champ de recherche par d\u00e9faut",
        "label": "Champ de recherche"
    },
    "title": {
        "variant": [
            {
                "name": "title_s",
                "type": "string",
                "indexed": true,
                "stocked": true,
                "multiplevalue": false,
                "currentName": "title_s"
            },
            {
                "name": "title_sci",
                "type": "stringCaseInsensitive",
                "indexed": true,
                "stocked": false,
                "multiplevalue": false,
                "currentName": "title_sci"
            },
            {
                "name": "title_t",
                "type": "text",
                "indexed": true,
                "stocked": false,
                "multiplevalue": false,
                "currentName": "title_t"
            }
        ],
        "dynamic": false,
        "description": "Titre du projet",
        "label": "Titre"
    },
    "valid": {
        "variant": [
            {
                "name": "valid_s",
                "type": "string",
                "indexed": true,
                "stocked": true,
                "multiplevalue": false,
                "currentName": "valid_s"
            }
        ],
        "dynamic": false,
        "description": "\u00c9tat du projet dans le r\u00e9f\u00e9rentiel",
        "label": "Validit\u00e9"
    }
}